{
	"registration":"Your LeadPassers a/c is created with UserID: ${uname}, Password: ${upass}",
	"activation":"Your LeadPassers a/c activation OTP is ${otp}. This is valid for 15 min.",
	"forgot_paassword": "Your new password is ${upass}",
	"mobile_change":"Kindly enter ${otp} as OTP for UserID ${uname}"
}